090302 1 27.75 6.35 0.682
090303 2 26.26 11.402 1.43524
090304 3 25.99 16.4 2.28304
090305 4 26.25 21.45 3.23704
090306 5 25.00 26.25 4.26204
090309 6 24.52 25.604 4.70952
090310 7 23.62 25.076 5.15824
090311 8 24.49 24.776 5.62376
090312 9 23.505 24.227 6.0534
090313 10 23.50 23.927 6.50194
090316 11 24.005 23.824 6.96812
090317 12 25.15 24.13 7.48132
090318 13 24.50 24.132 7.96416
090319 14 24.00 24.231 8.45868
090320 15 24.00 24.331 8.9553
090323 16 24.00 24.33 9.4418
090324 17 25.00 24.3 9.9248
090325 18 25.68 24.536 10.43912
090326 19 26.10 24.956 10.98024
090327 20 25.87 25.33 11.52424
090330 21 25.25 25.58 12.06084
090331 22 24.95 25.57 12.57124
090401 23 24.95 25.424 13.06512
090402 24 25.005 25.205 13.54732
090403 25 26.25 25.281 14.06054
090406 26 26.25 25.481 14.59016
090407 27 26.50 25.791 15.13698
090408 28 26.40 26.081 15.6876
090409 29 26.25 26.33 16.2391
090414 30 27.00 26.48 16.7837
090415 31 27.32 26.694 17.33898
090416 32 27.00 26.794 17.88486
090417 33 27.50 27.014 18.44714
090420 34 27.75 27.314 19.02342
090421 35 27.40 27.394 19.5793
090422 36 27.20 27.37 20.1243
090423 37 27.50 27.47 20.6837
090424 38 28.00 27.57 21.2451
090427 39 27.95 27.61 21.8013
090428 40 27.50 27.63 22.3559
090429 41 26.855 27.561 22.90022
090430 42 27.05 27.471 23.44064
090504 43 27.50 27.371 23.97806
090505 44 28.93 27.567 24.549
090506 45 28.87 27.841 25.13322
090507 46 28.85 28.24 25.61092
090508 47 28.715 28.573 25.98764
090511 48 28.40 28.753 26.2527
090512 49 28.15 28.597 26.38004
090513 50 28.165 28.456 26.41006
090514 51 27.52 28.19 26.43518
090515 52 28.00 28.047 26.4803
090518 53 27.50 27.867 26.52412
090519 54 26.50 27.537 26.55732
090520 55 26.88 27.28 26.59868
090521 56 27.19 27.214 26.65988
090522 57 26.95 27.004 26.69636
090525 58 27.12 26.928 26.74468
090526 59 26.68 26.964 26.80294
090527 60 27.00 26.988 26.85848
090528 61 26.685 26.887 26.89952
090529 62 26.74 26.845 26.94622
090601 63 26.505 26.722 26.97764
090602 64 28.015 26.989 27.045
090603 65 29.50 27.489 27.13818
090604 66 31.00 28.352 27.27992
090605 67 32.00 29.404 27.4618
090608 68 30.75 30.253 27.64328
090609 69 31.13 30.876 27.819
090610 70 31.00 31.176 27.9669
090611 71 31.44 31.264 28.09136
090612 72 31.00 31.064 28.17682
090615 73 30.10 30.934 28.26088
090616 74 28.75 30.458 28.29584
090617 75 28.505 29.959 28.31552
090618 76 28.105 29.292 28.30078
090619 77 27.50 28.592 28.26674
090622 78 27.25 28.022 28.2299
090623 79 27.255 27.723 28.20818
090624 80 27.005 27.423 28.17876
090625 81 27.10 27.222 28.1557
090626 82 26.50 27.022 28.12674
090629 83 26.90 26.952 28.10738
090630 84 26.35 26.771 28.0725
090701 85 26.44 26.658 28.04176
090702 86 26.75 26.588 28.0153
090703 87 27.10 26.708 28.01204
090706 88 26.505 26.629 27.9893
090707 89 26.25 26.609 27.96814
090708 90 26.30 26.581 27.94014
090709 91 26.255 26.482 27.89508
090710 92 25.835 26.229 27.8229
090713 93 26.10 26.148 27.7627
090714 94 26.27 26.152 27.7142
090715 95 26.10 26.112 27.66332
090716 96 26.30 26.121 27.62284
090717 97 26.40 26.234 27.59788
090720 98 26.90 26.394 27.58442
090721 99 27.20 26.58 27.58388
090722 100 27.82 26.924 27.61116
090723 101 28.50 27.364 27.65816
090724 102 28.70 27.824 27.72056
090727 103 29.52 28.348 27.80136
090728 104 29.20 28.748 27.87704
090729 105 29.00 28.984 27.94056
090730 106 29.305 29.145 28.00182
090731 107 29.99 29.403 28.07878
090803 108 30.00 29.499 28.14392
090804 109 30.57 29.773 28.227
090805 110 30.68 30.109 28.313
090806 111 30.25 30.298 28.37082
090807 112 30.405 30.381 28.39866
090810 113 31.00 30.581 28.42522
090811 114 31.85 30.837 28.45004
090812 115 33.02 31.305 28.49942
090813 116 34.50 32.155 28.60224
090814 117 34.50 32.974 28.72234
090817 118 33.50 33.474 28.82314
090818 119 33.00 33.704 28.91106
090819 120 33.40 33.78 28.99508
090820 121 33.995 33.679 29.07272
090821 122 34.60 33.699 29.17686
090824 123 34.10 33.819 29.3048
090825 124 34.12 34.043 29.4536
090826 125 34.15 34.193 29.604
090827 126 34.00 34.194 29.74354
090828 127 34.00 34.074 29.87258
090831 128 34.84 34.222 30.03278
090901 129 35.20 34.438 30.20772
090902 130 36.305 34.869 30.41504
090903 131 37.75 35.619 30.67066
090904 132 37.50 36.319 30.93288
090907 133 37.70 36.891 31.19532
090908 134 38.00 37.451 31.46816
090909 135 38.15 37.82 31.72984
090910 136 38.50 37.97 31.9746
090911 137 39.00 38.27 32.24542
090914 138 42.00 39.13 32.59106
090915 139 45.09 40.548 33.02078
090916 140 44.00 41.718 33.4499
090917 141 43.50 42.718 33.88184
090918 142 42.25 43.368 34.28952
090921 143 43.20 43.608 34.6578
090922 144 43.40 43.27 34.9578
090923 145 44.00 43.27 35.28472
090924 146 43.53 43.276 35.60356
090925 147 44.25 43.676 35.9606
090928 148 45.55 44.146 36.32356
090929 149 45.245 44.515 36.6758
090930 150 45.15 44.745 37.01402
091001 151 45.13 45.065 37.36442
091002 152 45.43 45.301 37.70598
091005 153 45.65 45.321 38.02442
091006 154 47.00 45.672 38.3775
091007 155 48.01 46.244 38.7574
091008 156 48.04 46.826 39.14616
091009 157 49.10 47.56 39.56314
091012 158 50.00 48.43 40.00712
091013 159 49.50 48.93 40.41898
091014 160 50.49 49.426 40.831
091015 161 50.01 49.82 41.2237
091016 162 50.23 50.046 41.58774
091019 163 49.79 50.004 41.91414
091020 164 49.10 49.924 42.23054
091021 165 49.60 49.746 42.53206
091022 166 47.78 49.3 42.79988
091023 167 49.50 49.154 43.09438
091026 168 51.00 49.396 43.43012
091027 169 49.91 49.558 43.75662
091028 170 50.10 49.658 44.07592
091029 171 48.51 49.804 44.40272
091030 172 49.25 49.754 44.71132
091102 173 48.76 49.306 44.9682
091103 174 48.52 49.028 45.2322
091104 175 48.25 48.658 45.47098
091105 176 48.50 48.656 45.73152
091106 177 48.15 48.436 45.95186
091109 178 49.00 48.484 46.18852
091110 179 49.07 48.594 46.42238
091111 180 48.17 48.578 46.63594
091112 181 47.25 48.328 46.8181
091113 182 48.45 48.388 47.02646
091116 183 48.00 48.188 47.18762
091117 184 47.70 47.914 47.30754
091118 185 47.25 47.73 47.40938
091119 186 47.11 47.702 47.50626
091120 187 46.53 47.318 47.54686
091123 188 46.50 47.018 47.58506
091124 189 45.85 46.648 47.61562
091125 190 45.66 46.33 47.64502
091126 191 45.55 46.018 47.66866
091127 192 45.15 45.742 47.68238
091130 193 45.00 45.442 47.6783
091201 194 44.80 45.232 47.67164
091202 195 44.61 45.022 47.65618
091203 196 43.77 44.666 47.6126
091204 197 44.91 44.618 47.59414
091207 198 46.00 44.818 47.60408
091208 199 46.50 45.158 47.6278
091209 200 47.245 45.685 47.66932
091210 201 47.20 46.371 47.72882
091211 202 47.50 46.889 47.7672
091214 203 47.75 47.239 47.77838
091215 204 48.70 47.679 47.79736
091216 205 48.85 48 47.80094
091217 206 48.895 48.339 47.80522
091218 207 48.50 48.539 47.79508
091221 208 48.50 48.689 47.78378
091222 209 48.79 48.707 47.76124
091223 210 48.80 48.697 47.73926
091224 211 49.00 48.718 47.72972
091228 212 49.00 48.818 47.733
091229 213 48.745 48.867 47.72732
091230 214 49.20 48.949 47.72334
091231 215 49.00 48.989 47.71396
100104 216 49.00 48.989 47.69766
100105 217 50.39 49.267 47.71572
100106 218 50.00 49.518 47.74506
100107 219 50.00 49.678 47.77406
100108 220 49.90 49.858 47.81606
100111 221 48.55 49.768 47.8293
100112 222 48.95 49.48 47.82138
100113 223 48.90 49.26 47.8149
100114 224 48.305 48.921 47.78754
100115 225 49.07 48.755 47.77448
100118 226 50.60 49.165 47.83222
100119 227 51.25 49.625 47.90296
100120 228 52.00 50.245 48.0061
100121 229 53.41 51.266 48.17524
100122 230 52.98 52.048 48.3398
100125 231 51.95 52.318 48.45912
100126 232 52.00 52.468 48.57712
100127 233 52.95 52.658 48.70892
100128 234 52.31 52.438 48.80272
100129 235 53.05 52.452 48.92656
100201 236 53.30 52.722 49.08764
100202 237 53.25 52.972 49.25724
100203 238 53.82 53.146 49.42872
100204 239 52.60 53.204 49.59396
100205 240 52.20 53.034 49.7372
100208 241 51.29 52.632 49.85632
100209 242 50.25 52.032 49.9446
100210 243 49.78 51.224 49.99192
100211 244 50.60 50.824 50.06524
100212 245 50.50 50.484 50.12722
100215 246 50.55 50.336 50.19172
100216 247 51.60 50.606 50.29306
100217 248 53.00 51.25 50.43768
100218 249 53.05 51.74 50.5679
100219 250 52.45 52.13 50.6895
100222 251 52.25 52.47 50.80612
100223 252 52.35 52.62 50.90274
100224 253 52.01 52.422 50.9576
100225 254 52.15 52.242 51.0103
100226 255 52.50 52.252 51.0824
100301 256 52.26 52.254 51.15332
100302 257 52.45 52.274 51.22444
100303 258 54.00 52.672 51.34034
100304 259 54.30 53.102 51.4664
100305 260 54.00 53.402 51.58466
100308 261 54.99 53.948 51.73844
100309 262 55.50 54.558 51.90526
100310 263 55.15 54.788 52.03366
100311 264 55.09 54.946 52.15482
100312 265 54.27 55 52.26306
100315 266 54.75 54.952 52.36194
100316 267 53.83 54.618 52.4313
100317 268 54.22 54.432 52.51614
100318 269 53.85 54.184 52.5966
100319 270 53.79 54.088 52.69366
100322 271 52.90 53.718 52.74772
100323 272 53.00 53.552 52.80966
100324 273 53.00 53.308 52.84652
100325 274 53.26 53.19 52.8732
100326 275 53.45 53.122 52.88788
100329 276 53.50 53.242 52.91836
100330 277 52.80 53.202 52.92904
100331 278 52.30 53.062 52.92312
100401 279 52.60 52.93 52.91976
100406 280 53.00 52.84 52.91852
100407 281 53.00 52.74 52.90888
100408 282 52.91 52.762 52.90688
100409 283 53.71 53.044 52.93304
100412 284 54.53 53.43 52.97616
100413 285 53.81 53.592 53.00352
100414 286 54.30 53.852 53.05392
100415 287 58.00 54.87 53.21248
100416 288 57.31 55.59 53.3718
100419 289 57.35 56.154 53.5348
100420 290 57.94 56.98 53.74732
100421 291 58.30 57.78 53.9762
100422 292 58.29 57.838 54.12664
100423 293 58.01 57.978 54.2752
100426 294 58.60 58.228 54.42996
100427 295 59.39 58.518 54.58672
100428 296 57.55 58.368 54.68968
100429 297 55.17 57.744 54.72976
100430 298 55.70 57.282 54.78076
100503 299 57.00 56.962 54.84316
100504 300 56.75 56.434 54.874
100505 301 54.25 55.774 54.8784
100506 302 53.45 55.43 54.90712
100507 303 53.30 54.95 54.90468
100510 304 54.50 54.45 54.88164
100511 305 54.50 54 54.8486
100512 306 54.50 54.05 54.85564
100513 307 55.29 54.418 54.88964
100514 308 54.50 54.658 54.91104
100517 309 53.90 54.538 54.89088
100518 310 54.70 54.578 54.88644
100519 311 55.47 54.772 54.90224
100520 312 54.60 54.634 54.88876
100521 313 52.50 54.234 54.8448
100524 314 52.50 53.954 54.8122
100525 315 52.00 53.414 54.74472
100526 316 50.51 52.422 54.6196
100527 317 52.12 51.926 54.53748
100528 318 53.15 52.056 54.52544
100531 319 54.08 52.372 54.54068
100601 320 54.76 52.924 54.59192
100602 321 52.00 53.222 54.62132
100603 322 51.50 53.098 54.60684
100604 323 52.10 52.888 54.58236
100607 324 52.00 52.472 54.5316
100608 325 52.65 52.05 54.4736
100609 326 50.25 51.7 54.4178
100610 327 50.29 51.458 54.36752
100611 328 52.70 51.578 54.3502
100614 329 53.91 51.96 54.359
100615 330 53.85 52.2 54.35516
100616 331 54.35 53.02 54.42052
100617 332 54.83 53.928 54.49248
100618 333 56.16 54.62 54.54228
100621 334 57.32 55.302 54.59344
100622 335 55.00 55.532 54.58748
100623 336 55.01 55.664 54.55836
100624 337 55.50 55.798 54.53096
100625 338 55.11 55.588 54.46216
100628 339 55.70 55.264 54.37048
100629 340 55.10 55.284 54.3078
100630 341 55.00 55.282 54.24588
100701 342 52.11 54.604 54.11528
100702 343 50.69 53.72 53.95564
100705 344 50.30 52.64 53.7612
100706 345 51.84 51.988 53.60708
100707 346 52.95 51.578 53.48216
100708 347 53.51 51.858 53.43872
100709 348 54.49 52.618 53.46808
100712 349 54.90 53.538 53.54184
100713 350 55.85 54.34 53.62884
100714 351 54.65 54.68 53.67544
100715 352 54.65 54.908 53.70804
100716 353 54.71 54.952 53.71832
100719 354 54.76 54.924 53.72324
100720 355 53.80 54.514 53.68096
100721 356 53.75 54.334 53.6542
100722 357 54.50 54.304 53.6446
100723 358 54.50 54.262 53.64096
100726 359 54.26 54.162 53.63512
100727 360 55.65 54.532 53.69448
100728 361 55.30 54.842 53.77388
100729 362 54.05 54.752 53.8214
100730 363 54.49 54.75 53.87508
100802 364 54.49 54.796 53.92816
100803 365 54.40 54.546 53.9356
100804 366 55.00 54.486 53.95488
100805 367 58.00 55.276 54.07744
100806 368 56.60 55.698 54.17584
100809 369 56.12 56.024 54.27948
100810 370 57.06 56.556 54.4228
100811 371 56.78 56.912 54.56264
100812 372 56.72 56.656 54.641
100813 373 56.10 56.556 54.73056
100816 374 56.74 56.68 54.83736
100817 375 54.55 56.178 54.86672
100818 376 56.00 56.022 54.91116
100819 377 55.00 55.678 54.91176
100820 378 54.75 55.408 54.90052
100823 379 54.50 54.96 54.84888
100824 380 54.60 54.97 54.83864
100825 381 52.50 54.27 54.74076
100826 382 51.60 53.59 54.6286
100827 383 53.00 53.24 54.54664
100830 384 53.90 53.12 54.49176
100831 385 52.11 52.622 54.38872
100901 386 52.00 52.522 54.32352
100902 387 53.08 52.818 54.3174
100903 388 52.66 52.75 54.2912
100906 389 53.00 52.57 54.2718
100907 390 53.75 52.898 54.3228
100908 391 53.88 53.274 54.39432
100909 392 53.00 53.258 54.42072
100910 393 53.25 53.376 54.44768
100913 394 53.80 53.536 54.46364
100914 395 54.00 53.586 54.45356
100915 396 54.25 53.66 54.44056
100916 397 54.74 54.008 54.45736
100917 398 54.75 54.308 54.47448
100920 399 54.00 54.348 54.46696
100921 400 52.75 54.098 54.43364
100922 401 52.70 53.788 54.39172
100923 402 52.96 53.432 54.33868
100924 403 52.95 53.072 54.27888
100927 404 55.00 53.272 54.28108
100928 405 57.67 54.256 54.37396
100929 406 57.25 55.166 54.47144
100930 407 57.59 56.092 54.59084
101001 408 57.50 57.002 54.72688
101004 409 56.95 57.392 54.8178
101005 410 56.25 57.108 54.84064
101006 411 56.51 56.96 54.87532
101007 412 56.74 56.79 54.8886
101008 413 56.40 56.57 54.88404
101011 414 57.00 56.58 54.89616
101012 415 56.30 56.59 54.89784
101013 416 55.60 56.408 54.86956
101014 417 56.00 56.26 54.84684
101015 418 56.38 56.256 54.84044
101018 419 57.90 56.436 54.85356
101019 420 58.90 56.956 54.92112
101020 421 58.92 57.62 55.01948
101021 422 58.95 58.21 55.12912
101022 423 59.09 58.752 55.2502
101025 424 59.20 59.012 55.35724
101026 425 58.70 58.972 55.43328
101027 426 59.74 59.136 55.547
101028 427 59.90 59.326 55.68072
101029 428 59.75 59.458 55.81828
101101 429 59.55 59.528 55.95344
101102 430 59.75 59.738 56.11676
101103 431 60.00 59.79 56.26732
101104 432 60.00 59.81 56.40916
101105 433 59.80 59.82 56.55156
101108 434 59.40 59.79 56.69296
101109 435 59.72 59.784 56.83008
101110 436 59.54 59.692 56.94924
101111 437 59.25 59.542 57.05992
101112 438 59.00 59.382 57.16404
101115 439 57.75 59.052 57.24136
101116 440 57.40 58.588 57.295
101117 441 56.76 58.032 57.32684
101118 442 56.50 57.482 57.34132
101119 443 57.50 57.182 57.3688
101122 444 57.76 57.184 57.42572
101123 445 57.50 57.204 57.48984
101124 446 56.72 57.196 57.5572
101125 447 56.00 57.096 57.62048
101126 448 56.50 56.896 57.67696
101129 449 55.11 56.366 57.68584
101130 450 54.75 55.816 57.66204
101201 451 54.25 55.322 57.61576
101202 452 54.20 54.962 57.55716
101203 453 55.00 54.662 57.48036
101206 454 55.00 54.64 57.42312
101207 455 55.45 54.78 57.39056
101208 456 55.75 55.08 57.38296
101209 457 54.80 55.2 57.36316
101210 458 55.10 55.22 57.33816
101213 459 54.60 55.14 57.30136
101214 460 54.00 54.85 57.23756
101215 461 52.49 54.198 57.12816
101216 462 54.85 54.208 57.08812
101217 463 56.25 54.438 57.07476
101220 464 55.90 54.698 57.066
101221 465 55.46 54.99 57.05588
101222 466 57.00 55.892 57.11152
101223 467 57.70 56.462 57.13356
101224 468 58.66 56.944 57.1456
101227 469 57.50 57.264 57.14264
101228 470 57.76 57.724 57.16368
101229 471 57.50 57.824 57.14744
101230 472 57.25 57.734 57.1066
101231 473 57.75 57.552 57.05028
110103 474 57.75 57.602 57.01676
110104 475 58.70 57.79 56.9966
110105 476 59.00 58.09 56.9926
110106 477 59.24 58.488 57.00596
110107 478 60.00 58.938 57.03332
110110 479 60.15 59.418 57.07388
110111 480 59.80 59.638 57.09296
110112 481 61.50 60.138 57.15188
110113 482 63.00 60.89 57.25404
110114 483 64.61 61.812 57.39484
110117 484 64.30 62.642 57.54964
110118 485 64.52 63.586 57.744
110119 486 65.00 64.286 57.93908
110120 487 64.39 64.564 58.10852
110121 488 64.45 64.532 58.25232
 51.672 56.85608
110124 490 63.27 51.422 56.71544
110125 491 66.80 51.782 56.64316
110126 492 66.65 52.234 56.59112
110127 493 66.45 52.634 56.54588
110128 494 67.75 66.184 58.09724
110131 495 67.75 67.08 58.41212
110201 496 68.25 67.37 58.68208
110202 497 67.25 67.49 58.94464
110203 498 67.75 67.75 59.2324
110204 499 68.00 67.8 59.5006
110207 500 68.25 67.9 59.773
110208 501 68.50 67.95 60.0354
110209 502 68.87 68.274 60.32928
110210 503 69.00 68.524 60.62036
110211 504 68.60 68.644 60.90244
110214 505 69.00 68.794 61.19632
110215 506 69.32 68.958 61.50792
110216 507 69.25 69.034 61.81204
110217 508 69.20 69.074 62.10876
110218 509 69.55 69.264 62.41908
110221 510 71.75 69.814 62.77056
110222 511 71.45 70.24 63.10012
110223 512 70.50 70.49 63.40568
110224 513 71.00 70.85 63.7198
110225 514 72.00 71.34 64.05032
